log/transcript_test.log
# vsim -c -classdebug -voptargs="+acc" "+UVM_TESTNAME=test" "+UVM_VERBOSITY=FULL" -wlf wave/wave_test.wlf work.testbench -do "log -r /*; coverage save -onexit ucdb/ucdb_test.ucdb; run -all; quit -f; exit" 
# Start time: 12:11:51 on Mar 22,2024
# ** Note: (vsim-3813) Design is being optimized due to module recompilation...
# ** Warning: src/test/sequence/input_sequence.svh(18): (vopt-2240) Treating stand-alone use of function 'randomize' as an implicit VOID cast.
# //  Questa Sim-64
# //  Version 10.7c linux_x86_64 Aug 17 2018
# //
# //  Copyright 1991-2018 Mentor Graphics Corporation
# //  All Rights Reserved.
# //
# //  QuestaSim and its associated documentation contain trade
# //  secrets and commercial or financial information that are the property of
# //  Mentor Graphics Corporation and are privileged, confidential,
# //  and exempt from disclosure under the Freedom of Information Act,
# //  5 U.S.C. Section 552. Furthermore, this information
# //  is prohibited from disclosure under the Trade Secrets Act,
# //  18 U.S.C. Section 1905.
# //
# Loading sv_std.std
# Loading mtiUvm.uvm_pkg
# Loading work.coverage_pack(fast)
# Loading work.item_pack(fast)
# Loading work.output_agent_pack(fast)
# Loading work.input_interface(fast)
# Loading work.input_agent_pack(fast)
# Loading work.sequence_pack(fast)
# Loading work.environment_pack(fast)
# Loading work.test_pack(fast)
# Loading work.testbench_sv_unit(fast)
# Loading work.testbench(fast)
# Loading work.input_interface_sv_unit(fast)
# Loading work.input_interface(fast)
# Loading work.output_interface_sv_unit(fast)
# Loading work.output_interface(fast)
# Loading work.addr_decoder_top(fast)
# Loading work.bus_module(fast)
# Loading work.fifo(fast)
# Loading work.tx_scheduler_top(fast)
# Loading work.fifo_rd_cntrl(fast)
# Loading work.frame_sif(fast)
# Loading work.rx_module(fast)
# Loading mtiUvm.questa_uvm_pkg(fast)
# Loading work.output_interface(fast)
# ** Warning: (vsim-3015) [PCDPC] - Port size (1) does not match connection size (5) for port 'full'. The port definition is at: ../unit-addr-decoder-4-sw-v-design/design/source/fifo_module.v(9).
#    Time: 0 ns  Iteration: 0  Instance: /testbench/DUT/genblk1[0]/DUT_AD_FIFO File: ../unit-addr-decoder-4-sw-v-design/design/source/addr_decoder_top.v Line: 75
# ** Warning: (vsim-3015) [PCDPC] - Port size (1) does not match connection size (5) for port 'full'. The port definition is at: ../unit-addr-decoder-4-sw-v-design/design/source/fifo_module.v(9).
#    Time: 0 ns  Iteration: 0  Instance: /testbench/DUT/genblk1[1]/DUT_AD_FIFO File: ../unit-addr-decoder-4-sw-v-design/design/source/addr_decoder_top.v Line: 75
# ** Warning: (vsim-3015) [PCDPC] - Port size (1) does not match connection size (5) for port 'full'. The port definition is at: ../unit-addr-decoder-4-sw-v-design/design/source/fifo_module.v(9).
#    Time: 0 ns  Iteration: 0  Instance: /testbench/DUT/genblk1[2]/DUT_AD_FIFO File: ../unit-addr-decoder-4-sw-v-design/design/source/addr_decoder_top.v Line: 75
# ** Warning: (vsim-3015) [PCDPC] - Port size (1) does not match connection size (5) for port 'full'. The port definition is at: ../unit-addr-decoder-4-sw-v-design/design/source/fifo_module.v(9).
#    Time: 0 ns  Iteration: 0  Instance: /testbench/DUT/genblk1[3]/DUT_AD_FIFO File: ../unit-addr-decoder-4-sw-v-design/design/source/addr_decoder_top.v Line: 75
# ** Warning: (vsim-3015) [PCDPC] - Port size (1) does not match connection size (5) for port 'full'. The port definition is at: ../unit-addr-decoder-4-sw-v-design/design/source/fifo_module.v(9).
#    Time: 0 ns  Iteration: 0  Instance: /testbench/DUT/genblk1[4]/DUT_AD_FIFO File: ../unit-addr-decoder-4-sw-v-design/design/source/addr_decoder_top.v Line: 75
# ** Warning: (vsim-3015) [PCDPC] - Port size (8) does not match connection size (1) for port 'op_id_out'. The port definition is at: ../unit-addr-decoder-4-sw-v-design/design/source/rx_module.v(14).
#    Time: 0 ns  Iteration: 0  Instance: /testbench/DUT/DUT_RX_FSM File: ../unit-addr-decoder-4-sw-v-design/design/source/addr_decoder_top.v Line: 112
# Loading /opt/questa/questasim/uvm-1.1d/linux_x86_64/uvm_dpi.so
# log -r /*
#  coverage save -onexit ucdb/ucdb_test.ucdb
#  run -all
# ----------------------------------------------------------------
# UVM-1.1d
# (C) 2007-2013 Mentor Graphics Corporation
# (C) 2007-2013 Cadence Design Systems, Inc.
# (C) 2006-2013 Synopsys, Inc.
# (C) 2011-2013 Cypress Semiconductor Corp.
# ----------------------------------------------------------------
# 
#   ***********       IMPORTANT RELEASE NOTES         ************
# 
#   You are using a version of the UVM library that has been compiled
#   with `UVM_NO_DEPRECATED undefined.
#   See http://www.eda.org/svdb/view.php?id=3313 for more details.
# 
#   You are using a version of the UVM library that has been compiled
#   with `UVM_OBJECT_MUST_HAVE_CONSTRUCTOR undefined.
#   See http://www.eda.org/svdb/view.php?id=3770 for more details.
# 
#       (Specify +UVM_NO_RELNOTES to turn off this notice)
# 
# UVM_INFO verilog_src/questa_uvm_pkg-1.2/src/questa_uvm_pkg.sv(215) @ 0: reporter [Questa UVM] QUESTA_UVM-1.2.3
# UVM_INFO verilog_src/questa_uvm_pkg-1.2/src/questa_uvm_pkg.sv(216) @ 0: reporter [Questa UVM]  questa_uvm::init(+struct)
# UVM_INFO @ 0: reporter [RNTST] Running test test...
# UVM_INFO verilog_src/questa_uvm_pkg-1.2/src/questa_uvm_pkg.sv(277) @ 0: reporter [Questa UVM] End Of Elaboration
# UVM_INFO @ 0: reporter [UVMTOP] UVM testbench topology:
# --------------------------------------------------------------
# Name                       Type                    Size  Value
# --------------------------------------------------------------
# uvm_test_top               test                    -     @478 
#   env                      environment             -     @489 
#     input_agent            input_agent             -     @504 
#       input_agent_driver   input_driver            -     @623 
#         rsp_port           uvm_analysis_port       -     @638 
#         seq_item_port      uvm_seq_item_pull_port  -     @630 
#       input_agent_monitor  input_monitor           -     @648 
#         mon_an_port        uvm_analysis_port       -     @665 
#       input_agent_seqr     uvm_sequencer           -     @514 
#         rsp_export         uvm_analysis_export     -     @521 
#         seq_item_export    uvm_seq_item_pull_imp   -     @615 
#         arbitration_queue  array                   0     -    
#         lock_queue         array                   0     -    
#         num_last_reqs      integral                32    'd1  
#         num_last_rsps      integral                32    'd1  
# --------------------------------------------------------------
# 
# UVM_INFO verilog_src/uvm-1.1d/src/seq/uvm_sequencer_base.svh(1384) @ 0: uvm_test_top.env.input_agent.input_agent_seqr [PHASESEQ] No default phase sequence for phase 'run'
# UVM_INFO verilog_src/uvm-1.1d/src/seq/uvm_sequencer_base.svh(1384) @ 0: uvm_test_top.env.input_agent.input_agent_seqr [PHASESEQ] No default phase sequence for phase 'pre_reset'
# UVM_INFO verilog_src/uvm-1.1d/src/seq/uvm_sequencer_base.svh(1384) @ 0: uvm_test_top.env.input_agent.input_agent_seqr [PHASESEQ] No default phase sequence for phase 'reset'
# UVM_INFO src/test/environment/input_agent/input_monitor.svh(41) @ 5: uvm_test_top.env.input_agent.input_agent_monitor [input_agent_monitor] Monitored configuration: enable_in: 'b0  wr_rd_op: 'b0  valid_in: 'b0  addr_in: 'h00  op_id_in: 'h00  wr_data_in: 'h00  ready_out: 'h0  rd_data_out: 'h00  done_op_id: 'h00
# UVM_INFO src/test/environment/input_agent/input_monitor.svh(41) @ 15: uvm_test_top.env.input_agent.input_agent_monitor [input_agent_monitor] Monitored configuration: enable_in: 'b0  wr_rd_op: 'b0  valid_in: 'b0  addr_in: 'h00  op_id_in: 'h00  wr_data_in: 'h00  ready_out: 'h0  rd_data_out: 'h00  done_op_id: 'h00
# UVM_INFO verilog_src/uvm-1.1d/src/seq/uvm_sequencer_base.svh(1384) @ 15: uvm_test_top.env.input_agent.input_agent_seqr [PHASESEQ] No default phase sequence for phase 'post_reset'
# UVM_INFO verilog_src/uvm-1.1d/src/seq/uvm_sequencer_base.svh(1384) @ 15: uvm_test_top.env.input_agent.input_agent_seqr [PHASESEQ] No default phase sequence for phase 'pre_configure'
# UVM_INFO verilog_src/uvm-1.1d/src/seq/uvm_sequencer_base.svh(1384) @ 15: uvm_test_top.env.input_agent.input_agent_seqr [PHASESEQ] No default phase sequence for phase 'configure'
# UVM_INFO verilog_src/uvm-1.1d/src/seq/uvm_sequencer_base.svh(1384) @ 15: uvm_test_top.env.input_agent.input_agent_seqr [PHASESEQ] No default phase sequence for phase 'post_configure'
# UVM_INFO verilog_src/uvm-1.1d/src/seq/uvm_sequencer_base.svh(1384) @ 15: uvm_test_top.env.input_agent.input_agent_seqr [PHASESEQ] No default phase sequence for phase 'pre_main'
# UVM_INFO verilog_src/uvm-1.1d/src/seq/uvm_sequencer_base.svh(1384) @ 15: uvm_test_top.env.input_agent.input_agent_seqr [PHASESEQ] No default phase sequence for phase 'main'
# UVM_INFO src/test/environment/input_agent/input_driver.svh(61) @ 25: uvm_test_top.env.input_agent.input_agent_driver [input_agent_driver] Drive: enable_in: 'b0  wr_rd_op: 'b0  valid_in: 'b1  addr_in: 'hfd  op_id_in: 'h53  wr_data_in: 'hc4  ready_out: 'h0  rd_data_out: 'h00  done_op_id: 'h00
# UVM_INFO src/test/environment/input_agent/input_monitor.svh(41) @ 25: uvm_test_top.env.input_agent.input_agent_monitor [input_agent_monitor] Monitored configuration: enable_in: 'b0  wr_rd_op: 'b0  valid_in: 'b0  addr_in: 'h00  op_id_in: 'h00  wr_data_in: 'h00  ready_out: 'h0  rd_data_out: 'h00  done_op_id: 'h00
# UVM_INFO src/test/environment/input_agent/input_driver.svh(61) @ 35: uvm_test_top.env.input_agent.input_agent_driver [input_agent_driver] Drive: enable_in: 'b0  wr_rd_op: 'b0  valid_in: 'b0  addr_in: 'h8e  op_id_in: 'hc8  wr_data_in: 'h32  ready_out: 'h0  rd_data_out: 'h00  done_op_id: 'h00
# UVM_INFO src/test/environment/input_agent/input_monitor.svh(41) @ 35: uvm_test_top.env.input_agent.input_agent_monitor [input_agent_monitor] Monitored configuration: enable_in: 'b0  wr_rd_op: 'b0  valid_in: 'b1  addr_in: 'hfd  op_id_in: 'h53  wr_data_in: 'hc4  ready_out: 'h0  rd_data_out: 'h00  done_op_id: 'h00
# UVM_INFO src/test/environment/input_agent/input_driver.svh(61) @ 45: uvm_test_top.env.input_agent.input_agent_driver [input_agent_driver] Drive: enable_in: 'b0  wr_rd_op: 'b0  valid_in: 'b0  addr_in: 'h43  op_id_in: 'hcd  wr_data_in: 'ha5  ready_out: 'h0  rd_data_out: 'h00  done_op_id: 'h00
# UVM_INFO src/test/environment/input_agent/input_monitor.svh(41) @ 45: uvm_test_top.env.input_agent.input_agent_monitor [input_agent_monitor] Monitored configuration: enable_in: 'b0  wr_rd_op: 'b0  valid_in: 'b0  addr_in: 'h8e  op_id_in: 'hc8  wr_data_in: 'h32  ready_out: 'h0  rd_data_out: 'h00  done_op_id: 'h00
# UVM_INFO src/test/environment/input_agent/input_driver.svh(61) @ 55: uvm_test_top.env.input_agent.input_agent_driver [input_agent_driver] Drive: enable_in: 'b0  wr_rd_op: 'b1  valid_in: 'b0  addr_in: 'h56  op_id_in: 'h2a  wr_data_in: 'ha8  ready_out: 'h0  rd_data_out: 'h00  done_op_id: 'h00
# UVM_INFO src/test/environment/input_agent/input_monitor.svh(41) @ 55: uvm_test_top.env.input_agent.input_agent_monitor [input_agent_monitor] Monitored configuration: enable_in: 'b0  wr_rd_op: 'b0  valid_in: 'b0  addr_in: 'h43  op_id_in: 'hcd  wr_data_in: 'ha5  ready_out: 'h0  rd_data_out: 'h00  done_op_id: 'h00
# UVM_INFO src/test/environment/input_agent/input_driver.svh(61) @ 65: uvm_test_top.env.input_agent.input_agent_driver [input_agent_driver] Drive: enable_in: 'b0  wr_rd_op: 'b0  valid_in: 'b0  addr_in: 'hb9  op_id_in: 'hdd  wr_data_in: 'hb6  ready_out: 'h0  rd_data_out: 'h00  done_op_id: 'h00
# UVM_INFO src/test/environment/input_agent/input_monitor.svh(41) @ 65: uvm_test_top.env.input_agent.input_agent_monitor [input_agent_monitor] Monitored configuration: enable_in: 'b0  wr_rd_op: 'b1  valid_in: 'b0  addr_in: 'h56  op_id_in: 'h2a  wr_data_in: 'ha8  ready_out: 'h0  rd_data_out: 'h00  done_op_id: 'h00
# UVM_INFO src/test/environment/input_agent/input_driver.svh(61) @ 75: uvm_test_top.env.input_agent.input_agent_driver [input_agent_driver] Drive: enable_in: 'b0  wr_rd_op: 'b0  valid_in: 'b1  addr_in: 'hc4  op_id_in: 'h1c  wr_data_in: 'hcf  ready_out: 'h0  rd_data_out: 'h00  done_op_id: 'h00
# UVM_INFO src/test/environment/input_agent/input_monitor.svh(41) @ 75: uvm_test_top.env.input_agent.input_agent_monitor [input_agent_monitor] Monitored configuration: enable_in: 'b0  wr_rd_op: 'b0  valid_in: 'b0  addr_in: 'hb9  op_id_in: 'hdd  wr_data_in: 'hb6  ready_out: 'h0  rd_data_out: 'h00  done_op_id: 'h00
# UVM_INFO src/test/environment/input_agent/input_driver.svh(61) @ 85: uvm_test_top.env.input_agent.input_agent_driver [input_agent_driver] Drive: enable_in: 'b0  wr_rd_op: 'b1  valid_in: 'b1  addr_in: 'hd7  op_id_in: 'haf  wr_data_in: 'hc0  ready_out: 'h0  rd_data_out: 'h00  done_op_id: 'h00
# UVM_INFO src/test/environment/input_agent/input_monitor.svh(41) @ 85: uvm_test_top.env.input_agent.input_agent_monitor [input_agent_monitor] Monitored configuration: enable_in: 'b0  wr_rd_op: 'b0  valid_in: 'b1  addr_in: 'hc4  op_id_in: 'h1c  wr_data_in: 'hcf  ready_out: 'h0  rd_data_out: 'h00  done_op_id: 'h00
# UVM_INFO src/test/environment/input_agent/input_driver.svh(61) @ 95: uvm_test_top.env.input_agent.input_agent_driver [input_agent_driver] Drive: enable_in: 'b0  wr_rd_op: 'b1  valid_in: 'b0  addr_in: 'h7d  op_id_in: 'hf4  wr_data_in: 'h50  ready_out: 'h0  rd_data_out: 'h00  done_op_id: 'h00
# UVM_INFO src/test/environment/input_agent/input_monitor.svh(41) @ 95: uvm_test_top.env.input_agent.input_agent_monitor [input_agent_monitor] Monitored configuration: enable_in: 'b0  wr_rd_op: 'b1  valid_in: 'b1  addr_in: 'hd7  op_id_in: 'haf  wr_data_in: 'hc0  ready_out: 'h0  rd_data_out: 'h00  done_op_id: 'h00
# UVM_INFO src/test/environment/input_agent/input_driver.svh(61) @ 105: uvm_test_top.env.input_agent.input_agent_driver [input_agent_driver] Drive: enable_in: 'b1  wr_rd_op: 'b1  valid_in: 'b1  addr_in: 'he9  op_id_in: 'hbf  wr_data_in: 'h73  ready_out: 'h0  rd_data_out: 'h00  done_op_id: 'h00
# UVM_INFO src/test/environment/input_agent/input_monitor.svh(41) @ 105: uvm_test_top.env.input_agent.input_agent_monitor [input_agent_monitor] Monitored configuration: enable_in: 'b0  wr_rd_op: 'b1  valid_in: 'b0  addr_in: 'h7d  op_id_in: 'hf4  wr_data_in: 'h50  ready_out: 'h0  rd_data_out: 'h00  done_op_id: 'h00
# UVM_INFO src/test/environment/input_agent/input_driver.svh(61) @ 115: uvm_test_top.env.input_agent.input_agent_driver [input_agent_driver] Drive: enable_in: 'b0  wr_rd_op: 'b1  valid_in: 'b0  addr_in: 'h9d  op_id_in: 'h25  wr_data_in: 'hb7  ready_out: 'h0  rd_data_out: 'h00  done_op_id: 'h00
# UVM_INFO src/test/environment/input_agent/input_monitor.svh(41) @ 115: uvm_test_top.env.input_agent.input_agent_monitor [input_agent_monitor] Monitored configuration: enable_in: 'b1  wr_rd_op: 'b1  valid_in: 'b1  addr_in: 'he9  op_id_in: 'hbf  wr_data_in: 'h73  ready_out: 'h0  rd_data_out: 'h00  done_op_id: 'h00
# UVM_INFO src/test/environment/input_agent/input_driver.svh(61) @ 125: uvm_test_top.env.input_agent.input_agent_driver [input_agent_driver] Drive: enable_in: 'b0  wr_rd_op: 'b1  valid_in: 'b1  addr_in: 'h35  op_id_in: 'h0b  wr_data_in: 'h1a  ready_out: 'h0  rd_data_out: 'h00  done_op_id: 'h00
# UVM_INFO src/test/environment/input_agent/input_monitor.svh(41) @ 125: uvm_test_top.env.input_agent.input_agent_monitor [input_agent_monitor] Monitored configuration: enable_in: 'b0  wr_rd_op: 'b1  valid_in: 'b0  addr_in: 'h9d  op_id_in: 'h25  wr_data_in: 'hb7  ready_out: 'h0  rd_data_out: 'h00  done_op_id: 'h00
# UVM_INFO src/test/environment/input_agent/input_driver.svh(61) @ 135: uvm_test_top.env.input_agent.input_agent_driver [input_agent_driver] Drive: enable_in: 'b1  wr_rd_op: 'b0  valid_in: 'b1  addr_in: 'hc4  op_id_in: 'h26  wr_data_in: 'h57  ready_out: 'h0  rd_data_out: 'h00  done_op_id: 'h00
# UVM_INFO src/test/environment/input_agent/input_monitor.svh(41) @ 135: uvm_test_top.env.input_agent.input_agent_monitor [input_agent_monitor] Monitored configuration: enable_in: 'b0  wr_rd_op: 'b1  valid_in: 'b1  addr_in: 'h35  op_id_in: 'h0b  wr_data_in: 'h1a  ready_out: 'h0  rd_data_out: 'h00  done_op_id: 'h00
# UVM_INFO src/test/environment/input_agent/input_driver.svh(61) @ 145: uvm_test_top.env.input_agent.input_agent_driver [input_agent_driver] Drive: enable_in: 'b0  wr_rd_op: 'b0  valid_in: 'b1  addr_in: 'h25  op_id_in: 'hae  wr_data_in: 'h3d  ready_out: 'h0  rd_data_out: 'h00  done_op_id: 'h00
# UVM_INFO src/test/environment/input_agent/input_monitor.svh(41) @ 145: uvm_test_top.env.input_agent.input_agent_monitor [input_agent_monitor] Monitored configuration: enable_in: 'b1  wr_rd_op: 'b0  valid_in: 'b1  addr_in: 'hc4  op_id_in: 'h26  wr_data_in: 'h57  ready_out: 'h0  rd_data_out: 'h00  done_op_id: 'h00
# UVM_INFO src/test/environment/input_agent/input_driver.svh(61) @ 155: uvm_test_top.env.input_agent.input_agent_driver [input_agent_driver] Drive: enable_in: 'b0  wr_rd_op: 'b0  valid_in: 'b1  addr_in: 'h43  op_id_in: 'h61  wr_data_in: 'h10  ready_out: 'h0  rd_data_out: 'h00  done_op_id: 'h00
# UVM_INFO src/test/environment/input_agent/input_monitor.svh(41) @ 155: uvm_test_top.env.input_agent.input_agent_monitor [input_agent_monitor] Monitored configuration: enable_in: 'b0  wr_rd_op: 'b0  valid_in: 'b1  addr_in: 'h25  op_id_in: 'hae  wr_data_in: 'h3d  ready_out: 'h0  rd_data_out: 'h00  done_op_id: 'h00
# UVM_INFO src/test/environment/input_agent/input_driver.svh(61) @ 165: uvm_test_top.env.input_agent.input_agent_driver [input_agent_driver] Drive: enable_in: 'b1  wr_rd_op: 'b1  valid_in: 'b1  addr_in: 'h14  op_id_in: 'ha6  wr_data_in: 'h4e  ready_out: 'h0  rd_data_out: 'h00  done_op_id: 'h00
# UVM_INFO src/test/environment/input_agent/input_monitor.svh(41) @ 165: uvm_test_top.env.input_agent.input_agent_monitor [input_agent_monitor] Monitored configuration: enable_in: 'b0  wr_rd_op: 'b0  valid_in: 'b1  addr_in: 'h43  op_id_in: 'h61  wr_data_in: 'h10  ready_out: 'h0  rd_data_out: 'h00  done_op_id: 'h00
# UVM_INFO src/test/environment/input_agent/input_driver.svh(61) @ 175: uvm_test_top.env.input_agent.input_agent_driver [input_agent_driver] Drive: enable_in: 'b0  wr_rd_op: 'b1  valid_in: 'b1  addr_in: 'h14  op_id_in: 'h3f  wr_data_in: 'hd4  ready_out: 'h0  rd_data_out: 'h00  done_op_id: 'h00
# UVM_INFO src/test/environment/input_agent/input_monitor.svh(41) @ 175: uvm_test_top.env.input_agent.input_agent_monitor [input_agent_monitor] Monitored configuration: enable_in: 'b1  wr_rd_op: 'b1  valid_in: 'b1  addr_in: 'h14  op_id_in: 'ha6  wr_data_in: 'h4e  ready_out: 'h0  rd_data_out: 'h00  done_op_id: 'h00
# UVM_INFO src/test/environment/input_agent/input_driver.svh(61) @ 185: uvm_test_top.env.input_agent.input_agent_driver [input_agent_driver] Drive: enable_in: 'b0  wr_rd_op: 'b1  valid_in: 'b1  addr_in: 'hdf  op_id_in: 'h3d  wr_data_in: 'h35  ready_out: 'h0  rd_data_out: 'h00  done_op_id: 'h00
# UVM_INFO src/test/environment/input_agent/input_monitor.svh(41) @ 185: uvm_test_top.env.input_agent.input_agent_monitor [input_agent_monitor] Monitored configuration: enable_in: 'b0  wr_rd_op: 'b1  valid_in: 'b1  addr_in: 'h14  op_id_in: 'h3f  wr_data_in: 'hd4  ready_out: 'h0  rd_data_out: 'h00  done_op_id: 'h00
# UVM_INFO src/test/environment/input_agent/input_driver.svh(61) @ 195: uvm_test_top.env.input_agent.input_agent_driver [input_agent_driver] Drive: enable_in: 'b1  wr_rd_op: 'b0  valid_in: 'b1  addr_in: 'h4a  op_id_in: 'he6  wr_data_in: 'h98  ready_out: 'h0  rd_data_out: 'h00  done_op_id: 'h00
# UVM_INFO src/test/environment/input_agent/input_monitor.svh(41) @ 195: uvm_test_top.env.input_agent.input_agent_monitor [input_agent_monitor] Monitored configuration: enable_in: 'b0  wr_rd_op: 'b1  valid_in: 'b1  addr_in: 'hdf  op_id_in: 'h3d  wr_data_in: 'h35  ready_out: 'h0  rd_data_out: 'h00  done_op_id: 'h00
# UVM_INFO src/test/environment/input_agent/input_driver.svh(61) @ 205: uvm_test_top.env.input_agent.input_agent_driver [input_agent_driver] Drive: enable_in: 'b1  wr_rd_op: 'b1  valid_in: 'b1  addr_in: 'h7d  op_id_in: 'hb6  wr_data_in: 'h2f  ready_out: 'h0  rd_data_out: 'h00  done_op_id: 'h00
# UVM_INFO src/test/environment/input_agent/input_monitor.svh(41) @ 205: uvm_test_top.env.input_agent.input_agent_monitor [input_agent_monitor] Monitored configuration: enable_in: 'b1  wr_rd_op: 'b0  valid_in: 'b1  addr_in: 'h4a  op_id_in: 'he6  wr_data_in: 'h98  ready_out: 'h0  rd_data_out: 'h00  done_op_id: 'h00
# UVM_INFO src/test/environment/input_agent/input_driver.svh(61) @ 215: uvm_test_top.env.input_agent.input_agent_driver [input_agent_driver] Drive: enable_in: 'b0  wr_rd_op: 'b1  valid_in: 'b1  addr_in: 'h50  op_id_in: 'h29  wr_data_in: 'hae  ready_out: 'h0  rd_data_out: 'h00  done_op_id: 'h00
# UVM_INFO src/test/environment/input_agent/input_monitor.svh(41) @ 215: uvm_test_top.env.input_agent.input_agent_monitor [input_agent_monitor] Monitored configuration: enable_in: 'b1  wr_rd_op: 'b1  valid_in: 'b1  addr_in: 'h7d  op_id_in: 'hb6  wr_data_in: 'h2f  ready_out: 'h0  rd_data_out: 'h00  done_op_id: 'h00
# UVM_INFO src/test/environment/input_agent/input_driver.svh(61) @ 225: uvm_test_top.env.input_agent.input_agent_driver [input_agent_driver] Drive: enable_in: 'b0  wr_rd_op: 'b1  valid_in: 'b0  addr_in: 'h86  op_id_in: 'h49  wr_data_in: 'h89  ready_out: 'h0  rd_data_out: 'h00  done_op_id: 'h00
# UVM_INFO src/test/environment/input_agent/input_monitor.svh(41) @ 225: uvm_test_top.env.input_agent.input_agent_monitor [input_agent_monitor] Monitored configuration: enable_in: 'b0  wr_rd_op: 'b1  valid_in: 'b1  addr_in: 'h50  op_id_in: 'h29  wr_data_in: 'hae  ready_out: 'h0  rd_data_out: 'h00  done_op_id: 'h00
# UVM_INFO src/test/environment/input_agent/input_driver.svh(61) @ 235: uvm_test_top.env.input_agent.input_agent_driver [input_agent_driver] Drive: enable_in: 'b0  wr_rd_op: 'b1  valid_in: 'b0  addr_in: 'ha3  op_id_in: 'h31  wr_data_in: 'hd1  ready_out: 'h0  rd_data_out: 'h00  done_op_id: 'h00
# UVM_INFO src/test/environment/input_agent/input_monitor.svh(41) @ 235: uvm_test_top.env.input_agent.input_agent_monitor [input_agent_monitor] Monitored configuration: enable_in: 'b0  wr_rd_op: 'b1  valid_in: 'b0  addr_in: 'h86  op_id_in: 'h49  wr_data_in: 'h89  ready_out: 'h0  rd_data_out: 'h00  done_op_id: 'h00
# UVM_INFO src/test/environment/input_agent/input_driver.svh(61) @ 245: uvm_test_top.env.input_agent.input_agent_driver [input_agent_driver] Drive: enable_in: 'b0  wr_rd_op: 'b1  valid_in: 'b0  addr_in: 'h18  op_id_in: 'h53  wr_data_in: 'h9c  ready_out: 'h0  rd_data_out: 'h00  done_op_id: 'h00
# UVM_INFO src/test/environment/input_agent/input_monitor.svh(41) @ 245: uvm_test_top.env.input_agent.input_agent_monitor [input_agent_monitor] Monitored configuration: enable_in: 'b0  wr_rd_op: 'b1  valid_in: 'b0  addr_in: 'ha3  op_id_in: 'h31  wr_data_in: 'hd1  ready_out: 'h0  rd_data_out: 'h00  done_op_id: 'h00
# UVM_INFO src/test/environment/input_agent/input_driver.svh(61) @ 255: uvm_test_top.env.input_agent.input_agent_driver [input_agent_driver] Drive: enable_in: 'b1  wr_rd_op: 'b0  valid_in: 'b1  addr_in: 'h08  op_id_in: 'hbf  wr_data_in: 'h4c  ready_out: 'h0  rd_data_out: 'h00  done_op_id: 'h00
# UVM_INFO src/test/environment/input_agent/input_monitor.svh(41) @ 255: uvm_test_top.env.input_agent.input_agent_monitor [input_agent_monitor] Monitored configuration: enable_in: 'b0  wr_rd_op: 'b1  valid_in: 'b0  addr_in: 'h18  op_id_in: 'h53  wr_data_in: 'h9c  ready_out: 'h0  rd_data_out: 'h00  done_op_id: 'h00
# UVM_INFO src/test/environment/input_agent/input_driver.svh(61) @ 265: uvm_test_top.env.input_agent.input_agent_driver [input_agent_driver] Drive: enable_in: 'b0  wr_rd_op: 'b1  valid_in: 'b1  addr_in: 'h29  op_id_in: 'h55  wr_data_in: 'hcc  ready_out: 'h0  rd_data_out: 'h00  done_op_id: 'h00
# UVM_INFO src/test/environment/input_agent/input_monitor.svh(41) @ 265: uvm_test_top.env.input_agent.input_agent_monitor [input_agent_monitor] Monitored configuration: enable_in: 'b1  wr_rd_op: 'b0  valid_in: 'b1  addr_in: 'h08  op_id_in: 'hbf  wr_data_in: 'h4c  ready_out: 'h0  rd_data_out: 'h00  done_op_id: 'h00
# UVM_INFO src/test/environment/input_agent/input_driver.svh(61) @ 275: uvm_test_top.env.input_agent.input_agent_driver [input_agent_driver] Drive: enable_in: 'b0  wr_rd_op: 'b0  valid_in: 'b0  addr_in: 'hd0  op_id_in: 'h69  wr_data_in: 'h7c  ready_out: 'h0  rd_data_out: 'h00  done_op_id: 'h00
# UVM_INFO src/test/environment/input_agent/input_monitor.svh(41) @ 275: uvm_test_top.env.input_agent.input_agent_monitor [input_agent_monitor] Monitored configuration: enable_in: 'b0  wr_rd_op: 'b1  valid_in: 'b1  addr_in: 'h29  op_id_in: 'h55  wr_data_in: 'hcc  ready_out: 'h0  rd_data_out: 'h00  done_op_id: 'h00
# UVM_INFO src/test/environment/input_agent/input_driver.svh(61) @ 285: uvm_test_top.env.input_agent.input_agent_driver [input_agent_driver] Drive: enable_in: 'b0  wr_rd_op: 'b1  valid_in: 'b1  addr_in: 'ha7  op_id_in: 'h22  wr_data_in: 'h84  ready_out: 'h0  rd_data_out: 'h00  done_op_id: 'h00
# UVM_INFO src/test/environment/input_agent/input_monitor.svh(41) @ 285: uvm_test_top.env.input_agent.input_agent_monitor [input_agent_monitor] Monitored configuration: enable_in: 'b0  wr_rd_op: 'b0  valid_in: 'b0  addr_in: 'hd0  op_id_in: 'h69  wr_data_in: 'h7c  ready_out: 'h0  rd_data_out: 'h00  done_op_id: 'h00
# UVM_INFO src/test/environment/input_agent/input_driver.svh(61) @ 295: uvm_test_top.env.input_agent.input_agent_driver [input_agent_driver] Drive: enable_in: 'b0  wr_rd_op: 'b1  valid_in: 'b1  addr_in: 'h80  op_id_in: 'h1a  wr_data_in: 'h9f  ready_out: 'h0  rd_data_out: 'h00  done_op_id: 'h00
# UVM_INFO src/test/environment/input_agent/input_monitor.svh(41) @ 295: uvm_test_top.env.input_agent.input_agent_monitor [input_agent_monitor] Monitored configuration: enable_in: 'b0  wr_rd_op: 'b1  valid_in: 'b1  addr_in: 'ha7  op_id_in: 'h22  wr_data_in: 'h84  ready_out: 'h0  rd_data_out: 'h00  done_op_id: 'h00
# UVM_INFO src/test/environment/input_agent/input_driver.svh(61) @ 305: uvm_test_top.env.input_agent.input_agent_driver [input_agent_driver] Drive: enable_in: 'b0  wr_rd_op: 'b1  valid_in: 'b1  addr_in: 'h3e  op_id_in: 'h58  wr_data_in: 'h06  ready_out: 'h0  rd_data_out: 'h00  done_op_id: 'h00
# UVM_INFO src/test/environment/input_agent/input_monitor.svh(41) @ 305: uvm_test_top.env.input_agent.input_agent_monitor [input_agent_monitor] Monitored configuration: enable_in: 'b0  wr_rd_op: 'b1  valid_in: 'b1  addr_in: 'h80  op_id_in: 'h1a  wr_data_in: 'h9f  ready_out: 'h0  rd_data_out: 'h00  done_op_id: 'h00
# UVM_INFO src/test/environment/input_agent/input_driver.svh(61) @ 315: uvm_test_top.env.input_agent.input_agent_driver [input_agent_driver] Drive: enable_in: 'b1  wr_rd_op: 'b1  valid_in: 'b1  addr_in: 'h97  op_id_in: 'ha1  wr_data_in: 'he7  ready_out: 'h0  rd_data_out: 'h00  done_op_id: 'h00
# UVM_INFO src/test/environment/input_agent/input_monitor.svh(41) @ 315: uvm_test_top.env.input_agent.input_agent_monitor [input_agent_monitor] Monitored configuration: enable_in: 'b0  wr_rd_op: 'b1  valid_in: 'b1  addr_in: 'h3e  op_id_in: 'h58  wr_data_in: 'h06  ready_out: 'h0  rd_data_out: 'h00  done_op_id: 'h00
# UVM_INFO src/test/environment/input_agent/input_driver.svh(61) @ 325: uvm_test_top.env.input_agent.input_agent_driver [input_agent_driver] Drive: enable_in: 'b1  wr_rd_op: 'b1  valid_in: 'b1  addr_in: 'hc6  op_id_in: 'hda  wr_data_in: 'hdd  ready_out: 'h0  rd_data_out: 'h00  done_op_id: 'h00
